…
## 绘图函数
ggplot(data = <DATA>) + 
  <GEOM_FUNCTION>(mapping = aes(<MAPPINGS>))


## 例子
```
ggplot(data = mpg) + 
  geom_point(mapping = aes(x = displ, y = hwy, size = class))
说明:
mpg是这个包中自带的一份数据，这个数据是美国环境保护局对于38种车型的统计数据


mpg
#> # A tibble: 234 × 11
#>   manufacturer model displ  year   cyl      trans   drv   cty   hwy    fl
#>          <chr> <chr> <dbl> <int> <int>      <chr> <chr> <int> <int> <chr>
#> 1         audi    a4   1.8  1999     4   auto(l5)     f    18    29     p
#> 2         audi    a4   1.8  1999     4 manual(m5)     f    21    29     p
#> 3         audi    a4   2.0  2008     4 manual(m6)     f    20    31     p
#> 4         audi    a4   2.0  2008     4   auto(av)     f    21    30     p
#> 5         audi    a4   2.8  1999     6   auto(l5)     f    16    26     p
#> 6         audi    a4   2.8  1999     6 manual(m5)     f    18    26     p
#> # ... with 228 more rows, and 1 more variables: class <chr>
…
## 线性
```
ggplot(data = mpg) + 
  geom_smooth(mapping = aes(x = displ, y = hwy))
说明：
geom_smoothgenjudispl和hwy线性拟合，如果加上入入geom_point后一样的分类现实例如：color=drv,将根据drv分类拟合并且显示不同的颜色

```

## 统计
```
diamonds
# A tibble: 53,940 x 10
   carat       cut color clarity depth table price     x     y     z
   <dbl>     <ord> <ord>   <ord> <dbl> <dbl> <int> <dbl> <dbl> <dbl>
 1  0.23     Ideal     E     SI2  61.5    55   326  3.95  3.98  2.43
 2  0.21   Premium     E     SI1  59.8    61   326  3.89  3.84  2.31
 3  0.23      Good     E     VS1  56.9    65   327  4.05  4.07  2.31
 4  0.29   Premium     I     VS2  62.4    58   334  4.20  4.23  2.63
 5  0.31      Good     J     SI2  63.3    58   335  4.34  4.35  2.75
 6  0.24 Very Good     J    VVS2  62.8    57   336  3.94  3.96  2.48
 7  0.24 Very Good     I    VVS1  62.3    57   336  3.95  3.98  2.47
 8  0.26 Very Good     H     SI1  61.9    55   337  4.07  4.11  2.53
 9  0.22      Fair     E     VS2  65.1    61   337  3.87  3.78  2.49
10  0.23 Very Good     H     VS1  59.4    61   338  4.00  4.05  2.39
# ... with 53,930 more rows
…
